{
	"name": "Vimium C",
	"@time": "3/19/2024, 8:30:40 AM",
	"time": 1710833440335,
	"environment": {
		"extension": "1.99.997",
		"platform": "linux",
		"firefox": 123
	},
	"autoDarkMode": 1,
	"exclusionRules": [
		{
			"pattern": ":https://mail.google.com/",
			"passKeys": ""
		},
		{
			"pattern": ":https://www.overleaf.com/project/",
			"passKeys": ""
		},
		{
			"pattern": ":https://remote-eu-12.tryhackme.tech/",
			"passKeys": ""
		},
		{
			"pattern": ":https://tryhackme.com/room/",
			"passKeys": ""
		},
		{
			"pattern": ":https://vnc.tryhackme.tech/",
			"passKeys": ""
		},
		{
			"pattern": ":https://tryhackme.com/",
			"passKeys": ""
		}
	],
	"keyMappings": [
		"#!no-check",
		"unmap n",
		"unmap N",
		"unmap i",
		"unmap k",
		"unmap K",
		"unmap p",
		"map n scrollDown",
		"map N nextTab",
		"map e scrollUp",
		"map E previousTab",
		"map i scrollRight",
		"map I goForward",
		"map k performFind",
		"map K performBackwardsFind",
		"map <c-g> zoomIn",
		"map <c-p> zoomOut",
		"map <c-r> zoomReset",
		"map ;F LinkHints.activateWithQueue",
		"map ;f LinkHints.activateOpenInNewForegroundTab",
		""
	],
	"linkHintCharacters": "aroistenfuplc,vm",
	"scrollStepSize": 220,
	"searchEngines": [
		"d|ddg|duckduckgo: https://duckduckgo.com/?q=%s DuckDuckGo",
		"wib: https://wiby.me/?q=%s Wiby",
		"y|yt: https://www.youtube.com/results?search_query=%s \\",
		"  blank=https://www.youtube.com/ YouTube",
		"yy: https://www.youtube.com/@%s",
		"o: https://odysee.com/$/search?q=%s \\",
		"  blank=https://odysee.com/ Odysee",
		"a: https://wiki.archlinux.org/index.php?search=%s \\",
		"  blank=https://wiki.archlinux.org/ ArchLinux",
		"",
		"w|wiki: https://www.wikipedia.org/w/index.php?search=%s Wikipedia",
		"gg: https://google.com/search?q=%s Google",
		"gs|gscholar: https://scholar.google.com/scholar?q=$s \\",
		"  scholar.google.com re=/^(?:\\.[a-z]{2,4})?\\/scholar\\b.*?[#&?]q=([^#&]*)/i\\",
		"  blank=https://scholar.google.com/ Google Scholar",
		"",
		"gr: https://www.goodreads.com/search?utf8=✓&query=%s Goodreads",
		"v.m|v\\:math: vimium://math\\ $S re= Calculate",
		"g: https://github.com/search?q=$s \\",
		"  blank=https://github.com/ GitHub Repo",
		"js\\:|Js: javascript:\\ $S; JavaScript",
		""
	],
	"searchUrl": "https://search.brave.com/search?q=$s BraveSearch",
	"userDefinedCss": ".LH { background: #ffdc8f }",
	"vimSync": true,
	"vomnibarOptions": {
		"actions": "",
		"maxMatches": 10,
		"queryInterval": 333,
		"sizes": "77,3,44,0.8",
		"styles": "dark"
	}
}
